…
For the current list, run
[`eucast_supported_ab_distributions()`](https://AMRverse.github.io/AMRgen/reference/eucast_supported_ab_distributions.md).

## Examples

``` r
get_eucast_mic_distribution("cipro")
#> # A tibble: 133 × 4
#>    microorganism                   microorganism_code   mic count
#>    <chr>                           <mo>               <mic> <int>
#>  1 Actinobacillus pleuropneumoniae B_ACTNB_PLRP       0.002     0
#>  2 Actinobacillus pleuropneumoniae B_ACTNB_PLRP       0.004     0
#>  3 Actinobacillus pleuropneumoniae B_ACTNB_PLRP       0.008     0
#>  4 Actinobacillus pleuropneumoniae B_ACTNB_PLRP       0.016     0
#>  5 Actinobacillus pleuropneumoniae B_ACTNB_PLRP       0.030     0
#>  6 Actinobacillus pleuropneumoniae B_ACTNB_PLRP       0.060     0
#>  7 Actinobacillus pleuropneumoniae B_ACTNB_PLRP       0.125     0
#>  8 Actinobacillus pleuropneumoniae B_ACTNB_PLRP       0.250    28
#>  9 Actinobacillus pleuropneumoniae B_ACTNB_PLRP       0.500    27
#> 10 Actinobacillus pleuropneumoniae B_ACTNB_PLRP       1.000     1
#> # ℹ 123 more rows
…
