…
- Reads the Kleborate output table.

- Transforms Kleborate output into long form (i.e., one AMR determinant
  per row).

- Maps Kleborate drug classes to standardised drug class names
  recognised by the AMR pkg. This processing ensures compatibility with
  downstream AMRgen analysis workflows.

## Examples

``` r
# example Kleborate data from EUSCAPE project
kleborate_raw
#> # A tibble: 1,490 × 122
#>    strain    species species_match contig_count    N50 largest_contig total_size
#>    <chr>     <chr>   <chr>                <dbl>  <dbl>          <dbl>      <dbl>
#>  1 SAMEA349… Klebsi… strong                 141 230759         470757    5578320
#>  2 SAMEA349… Klebsi… strong                  88 370309         938079    5384685
#>  3 SAMEA349… Klebsi… strong                  90 238750         529125    5446454
#>  4 SAMEA349… Klebsi… strong                 144 207582         663698    5574298
#>  5 SAMEA349… Klebsi… strong                 142 263498         678692    5486238
#>  6 SAMEA349… Klebsi… strong                  79 285199         991412    5529803
#>  7 SAMEA349… Klebsi… strong                 280 178980         585359    5817055
#>  8 SAMEA349… Klebsi… strong                 108 209418         517450    5379124
#>  9 SAMEA349… Klebsi… strong                 134 371444         984005    5558705
#> 10 SAMEA349… Klebsi… strong                 142 197944         636773    5497421
#> # ℹ 1,480 more rows
#> # ℹ 115 more variables: GC_content <dbl>, ambiguous_bases <chr>,
#> #   QC_warnings <chr>, ST <chr>, gapA <dbl>, infB <dbl>, mdh <dbl>, pgi <dbl>,
#> #   phoE <dbl>, rpoB <dbl>, tonB <dbl>, YbST <chr>, Yersiniabactin <chr>,
#> #   ybtS <chr>, ybtX <chr>, ybtQ <chr>, ybtP <chr>, ybtA <chr>, irp2 <chr>,
#> #   irp1 <chr>, ybtU <chr>, ybtT <chr>, ybtE <chr>, fyuA <chr>,
#> #   spurious_ybt_hits <chr>, CbST <chr>, Colibactin <chr>, clbA <chr>, …
…
