Summarise a Genotype Table — summarise_geno • AMRgen
…
#> NULL
#> 
#> $drugs
#> # A tibble: 6 × 3
#>   drug_class              markers     n
#>   <chr>                     <int> <int>
#> 1 Aminoglycosides              14 25009
#> 2 Macrolides/lincosamides       1    16
#> 3 Other antibacterials          2  1671
#> 4 Pleuromutilins                1     8
#> 5 Tetracyclines                 8 19225
#> 6 NA                            1    16
#> 
#> $markers
#> # A tibble: 27 × 3
#>    marker                 drug_class               n
#>    <chr>                  <chr>                <int>
#>  1 aac(6')-Ie             Aminoglycosides         27
#>  2 aac(6')-Ie/aph(2'')-Ia Aminoglycosides      17088
#>  3 aadD1                  Aminoglycosides        248
#>  4 ant(3'')-IIa           Aminoglycosides          2
#>  5 ant(3'')-IIa           Other antibacterials     2
#>  6 ant(6)-Ia              Aminoglycosides        442
#>  7 ant(9)-Ia              Other antibacterials  1669
#>  8 aph(2'')-I             Aminoglycosides         16
#>  9 aph(2'')-Ia            Aminoglycosides        144
#> 10 aph(3')-IIIa           Aminoglycosides       6832
#> # ℹ 17 more rows
…
