…
#>  4 DOX  Doxycycline   Tetracyclines         1       1     8
#>  5 ERY  Erythromycin  Macrolides            1       1     8
#>  6 GEN  Gentamicin    Aminoglycosides       5     981  4321
#>  7 KAN  Kanamycin     Aminoglycosides       6    1963  7861
#>  8 MNO  Minocycline   Tetracyclines         1       1     8
#>  9 SPT  Spectinomycin Other                 2    1475  1671
#> 10 STR1 Streptomycin  Aminoglycosides       3     497   582
#> 11 TGC  Tigecycline   Tetracyclines         2    7538  7576
#> 12 TOB  Tobramycin    Aminoglycosides       5    1004  4445
#> 13 NA   NA            Aminoglycosides       2      43    43
#> 14 NA   NA            Pleuromutilins        1       1     8
#> 15 NA   NA            Tetracyclines         6    7525 11649
#> 
#> $markers
#> # A tibble: 43 × 5
#>    marker                 drug drug_name     drug_class          n
#>    <chr>                  <ab> <chr>         <chr>           <int>
#>  1 aac(6')-Ie             AMK  Amikacin      Aminoglycosides     9
#>  2 aac(6')-Ie             KAN  Kanamycin     Aminoglycosides     9
#>  3 aac(6')-Ie             TOB  Tobramycin    Aminoglycosides     9
#>  4 aac(6')-Ie/aph(2'')-Ia AMK  Amikacin      Aminoglycosides  4272
#>  5 aac(6')-Ie/aph(2'')-Ia GEN  Gentamicin    Aminoglycosides  4272
#>  6 aac(6')-Ie/aph(2'')-Ia KAN  Kanamycin     Aminoglycosides  4272
#>  7 aac(6')-Ie/aph(2'')-Ia TOB  Tobramycin    Aminoglycosides  4272
#>  8 aadD1                  KAN  Kanamycin     Aminoglycosides   124
#>  9 aadD1                  TOB  Tobramycin    Aminoglycosides   124
#> 10 ant(3'')-IIa           SPT  Spectinomycin Other               2
#> # ℹ 33 more rows
…
