…
#>  2 NA    Beta-lactams                   76    1457  2833
#>  3 NA    Carbapenems                   153     770  1477
#>  4 NA    Cephalosporins (3rd gen.)      18     648   668
#>  5 NA    Macrolides                     15     460   924
#>  6 NA    Phenicols                      16     479   572
#>  7 NA    Phosphonics                    17    1485  1490
#>  8 NA    Polymyxins                     33     138   138
#>  9 NA    Quinolones                     26    1021  2665
#> 10 NA    Rifamycins                      3     119   128
#> 11 NA    Sulfonamides                   13     917  1096
#> 12 NA    Tetracyclines                  12     514   554
#> 13 NA    Trimethoprims                  21     941  1110
#> 
#> $markers
#> # A tibble: 471 × 5
#>    marker   drug  drug_class                `variation type`           n
#>    <chr>    <lgl> <chr>                     <chr>                  <int>
#>  1 ACC-4.v1 NA    Beta-lactams              Gene presence detected     2
#>  2 CMY-13   NA    Beta-lactams              Gene presence detected     1
#>  3 CMY-16   NA    Beta-lactams              Gene presence detected    31
#>  4 CMY-2.v2 NA    Beta-lactams              Gene presence detected     1
#>  5 CMY-30   NA    Cephalosporins (3rd gen.) Gene presence detected     1
#>  6 CMY-4.v1 NA    Beta-lactams              Gene presence detected     5
#>  7 CMY-6    NA    Beta-lactams              Gene presence detected     2
#>  8 CTX-M-1  NA    Cephalosporins (3rd gen.) Gene presence detected     1
#>  9 CTX-M-14 NA    Cephalosporins (3rd gen.) Gene presence detected    16
#> 10 CTX-M-15 NA    Cephalosporins (3rd gen.) Gene presence detected   568
#> # ℹ 461 more rows
```
…
#> # A tibble: 2 × 6
#>   drug     n drug_class   drug_name spp_pheno               mic
#>   <ab> <int> <chr>        <chr>     <chr>                 <int>
#> 1 MEM   1490 Carbapenems  Meropenem Klebsiella pneumoniae  1490
#> 2 MEM   1490 Beta-lactams Meropenem Klebsiella pneumoniae  1490
#> 
#> $geno_hits
#> # A tibble: 2 × 6
#>   drug  drug_name drug_class   markers samples  hits
#>   <lgl> <chr>     <chr>          <int>   <int> <int>
#> 1 NA    NA        Beta-lactams      76    1457  2833
#> 2 NA    NA        Carbapenems      153     770  1477
#> 
#> $geno_markers
#> # A tibble: 229 × 6
#>    marker   drug  drug_name drug_class   `variation type`           n
#>    <chr>    <lgl> <chr>     <chr>        <chr>                  <int>
#>  1 ACC-4.v1 NA    NA        Beta-lactams Gene presence detected     2
#>  2 CMY-13   NA    NA        Beta-lactams Gene presence detected     1
#>  3 CMY-16   NA    NA        Beta-lactams Gene presence detected    31
#>  4 CMY-2.v2 NA    NA        Beta-lactams Gene presence detected     1
#>  5 CMY-4.v1 NA    NA        Beta-lactams Gene presence detected     5
#>  6 CMY-6    NA    NA        Beta-lactams Gene presence detected     2
#>  7 CTX-M-33 NA    NA        Carbapenems  Gene presence detected     1
#>  8 DHA-1    NA    NA        Beta-lactams Gene presence detected    78
#>  9 IMP-1    NA    NA        Carbapenems  Gene presence detected     3
#> 10 KPC-12   NA    NA        Carbapenems  Gene presence detected     1
#> # ℹ 219 more rows
…
``` r

soloPPV_kleborate_mero$solo_stats
#> # A tibble: 28 × 8
#>    marker                category     x     n    ppv     se ci.lower ci.upper
#>    <chr>                 <chr>    <dbl> <int>  <dbl>  <dbl>    <dbl>    <dbl>
#>  1 OXA-162               R            0     2 0      0        0        0     
#>  2 OXA-204               R            0     1 0      0        0        0     
#>  3 OmpK36:c.25C>T        R            0     6 0      0        0        0     
#>  4 OmpK36:p.134_135insGD R            0     9 0      0        0        0     
#>  5 VIM-1                 R            0    13 0      0        0        0     
#>  6 VIM-4                 R            0     4 0      0        0        0     
#>  7 OmpK36:-              R            1    71 0.0141 0.0140   0        0.0415
#>  8 OmpK35:-              R            2    49 0.0408 0.0283   0        0.0962
#>  9 OXA-48                R            6    99 0.0606 0.0240   0.0136   0.108 
#> 10 KPC-3                 R            3    10 0.3    0.145    0.0160   0.584 
#> # ℹ 18 more rows
```
…
``` r

comboPPV_kleborate_mero$summary
#> # A tibble: 56 × 21
#>    marker_list        marker_count     n combination_id   R.n   R.ppv R.ci_lower
#>    <chr>                     <dbl> <int> <fct>          <dbl>   <dbl>      <dbl>
#>  1 ""                            0   720 0_0_0_0_0_0_0…     3 0.00417      0    
#>  2 "IMP-1"                       1     3 0_0_0_0_0_0_0…     2 0.667        0.133
#>  3 "OXA-162"                     1     2 0_0_0_0_0_0_0…     0 0            0    
#>  4 "VIM-4"                       1     4 0_0_0_0_0_0_0…     0 0            0    
#>  5 "VIM-1"                       1    13 0_0_0_0_0_0_0…     0 0            0    
#>  6 "OXA-204"                     1     1 0_0_0_0_0_0_0…     0 0            0    
#>  7 "OmpK36:p.135_136…            1     3 0_0_0_0_0_0_0…     1 0.333        0    
#>  8 "KPC-2"                       1    17 0_0_0_0_0_0_0…     7 0.412        0.178
#>  9 "KPC-2, VIM-1"                2     2 0_0_0_0_0_0_0…     2 1            1    
#> 10 "OmpK36:p.134_135…            1     9 0_0_0_0_0_0_1…     0 0            0    
#> # ℹ 46 more rows
#> # ℹ 14 more variables: R.ci_upper <dbl>, R.denom <int>, NWT.n <dbl>,
#> #   NWT.ppv <dbl>, NWT.ci_lower <dbl>, NWT.ci_upper <dbl>, NWT.denom <int>,
#> #   median_excludeRangeValues <dbl>, q25_excludeRangeValues <dbl>,
#> #   q75_excludeRangeValues <dbl>, n_excludeRangeValues <int>,
#> #   median_ignoreRanges <dbl>, q25_ignoreRanges <dbl>, q75_ignoreRanges <dbl>
```
…
``` r
kp_mic_upset_kleborate$summary
#> # A tibble: 56 × 21
#>    marker_list        marker_count     n combination_id   R.n   R.ppv R.ci_lower
#>    <chr>                     <dbl> <int> <fct>          <dbl>   <dbl>      <dbl>
#>  1 ""                            0   720 0_0_0_0_0_0_0…     3 0.00417      0    
#>  2 "IMP-1"                       1     3 0_0_0_0_0_0_0…     2 0.667        0.133
#>  3 "OXA-162"                     1     2 0_0_0_0_0_0_0…     0 0            0    
#>  4 "VIM-4"                       1     4 0_0_0_0_0_0_0…     0 0            0    
#>  5 "VIM-1"                       1    13 0_0_0_0_0_0_0…     0 0            0    
#>  6 "OXA-204"                     1     1 0_0_0_0_0_0_0…     0 0            0    
#>  7 "OmpK36:p.135_136…            1     3 0_0_0_0_0_0_0…     1 0.333        0    
#>  8 "KPC-2"                       1    17 0_0_0_0_0_0_0…     7 0.412        0.178
#>  9 "KPC-2, VIM-1"                2     2 0_0_0_0_0_0_0…     2 1            1    
#> 10 "OmpK36:p.134_135…            1     9 0_0_0_0_0_0_1…     0 0            0    
#> # ℹ 46 more rows
#> # ℹ 14 more variables: R.ci_upper <dbl>, R.denom <int>, NWT.n <dbl>,
#> #   NWT.ppv <dbl>, NWT.ci_lower <dbl>, NWT.ci_upper <dbl>, NWT.denom <int>,
#> #   median_excludeRangeValues <dbl>, q25_excludeRangeValues <dbl>,
#> #   q75_excludeRangeValues <dbl>, n_excludeRangeValues <int>,
#> #   median_ignoreRanges <dbl>, q25_ignoreRanges <dbl>, q75_ignoreRanges <dbl>
```
…
#>  2 NA    Beta-lactams                   76    1457  2833
#>  3 NA    Carbapenems                    17     766  1459
#>  4 NA    Cephalosporins (3rd gen.)      18     648   668
#>  5 NA    Macrolides                     14     460   923
#>  6 NA    Phenicols                      12     469   558
#>  7 NA    Phosphonics                     1       3     3
#>  8 NA    Polymyxins                      3     138   138
#>  9 NA    Quinolones                     25    1020  2422
#> 10 NA    Rifamycins                      2     114   114
#> 11 NA    Sulfonamides                    9     913  1090
#> 12 NA    Tetracyclines                   9     503   541
#> 13 NA    Trimethoprims                  18     886  1017
#> 
#> $markers
#> # A tibble: 263 × 5
#>    marker.label drug  drug_class                `variation type`           n
#>    <chr>        <lgl> <chr>                     <chr>                  <int>
#>  1 ACC-4        NA    Beta-lactams              Gene presence detected     2
#>  2 CMY-13       NA    Beta-lactams              Gene presence detected     1
#>  3 CMY-16       NA    Beta-lactams              Gene presence detected    31
#>  4 CMY-2.v2     NA    Beta-lactams              Gene presence detected     1
#>  5 CMY-30       NA    Cephalosporins (3rd gen.) Gene presence detected     1
#>  6 CMY-4.v1     NA    Beta-lactams              Gene presence detected     5
#>  7 CMY-6        NA    Beta-lactams              Gene presence detected     2
#>  8 CTX-M-1      NA    Cephalosporins (3rd gen.) Gene presence detected     1
#>  9 CTX-M-14     NA    Cephalosporins (3rd gen.) Gene presence detected    16
#> 10 CTX-M-15     NA    Cephalosporins (3rd gen.) Gene presence detected   568
#> # ℹ 253 more rows
```
…
#>  9 Macrolides                      7     479  6818
#> 10 Other                           1       2     4
#> 11 Penicillins                     1       4    16
#> 12 Phenicols                      25    1458  3802
#> 13 Phosphonics                     5    1488  1491
#> 14 Polymyxins                     12      40    40
#> 15 Quinolones                     40    1468  4959
#> 16 Rifamycins                      3     110   119
#> 17 Streptogramins                  2      83   249
#> 18 Sulfonamides                    3     931  1206
#> 19 Tetracyclines                  12     605   699
#> 20 Trimethoprims                  12     539   563
#> 
#> $markers
#> # A tibble: 261 × 3
#>    marker        drug_class          n
#>    <chr>         <chr>           <int>
#>  1 aac(3)-IId    Aminoglycosides   122
#>  2 aac(3)-IIe    Aminoglycosides   379
#>  3 aac(3)-IIg    Aminoglycosides    14
#>  4 aac(3)-IVa    Aminoglycosides    45
#>  5 aac(3)-Ia     Aminoglycosides     5
#>  6 aac(3)-VIa    Aminoglycosides     1
#>  7 aac(6')-IIc   Aminoglycosides   189
#>  8 aac(6')-Ib    Aminoglycosides  3100
#>  9 aac(6')-Ib'   Aminoglycosides    11
#> 10 aac(6')-Ib-cr Aminoglycosides    24
#> # ℹ 251 more rows
```
…
#> 2 marker              252
#> 3 drug                109
#> 4 drug_class           30
#> 5 variation type        3
#> 
#> $per_type
#> # A tibble: 3 × 5
#>   `variation type`            id marker  drug drug_class
#>   <chr>                    <int>  <int> <int>      <int>
#> 1 Gene presence detected    1430    233    98         29
#> 2 Protein variant detected  1445     18    37         13
#> 3 NA                          45      1     1          1
#> 
#> $drugs
#> # A tibble: 114 × 5
#>    drug                 drug_class       markers samples  hits
#>    <chr>                <chr>              <int>   <int> <int>
#>  1 2'-N-ethylnetilmicin Aminoglycosides        8     462   492
#>  2 5-episisomicin       Aminoglycosides        3      37    37
#>  3 6'-N-ethylnetilmicin Aminoglycosides        6     449   456
#>  4 AMK                  Aminoglycosides       18    1445  3846
#>  5 AMP                  Aminopenicillins      22    1445 10675
#>  6 AMX                  Aminopenicillins       6     747  1110
#>  7 APR                  Aminoglycosides        1       5     5
#>  8 ARB                  Aminoglycosides        4      72    73
#>  9 AST                  Aminoglycosides        2      17    17
#> 10 ATM                  Monobactams            1       1     1
#> # ℹ 104 more rows
#> 
#> $markers
#> # A tibble: 815 × 5
#>    marker     drug                 drug_class      `variation type`           n
#>    <chr>      <chr>                <chr>           <chr>                  <int>
#>  1 AAC(3)-IIc 2'-N-ethylnetilmicin Aminoglycosides Gene presence detected    16
#>  2 AAC(3)-IIc 6'-N-ethylnetilmicin Aminoglycosides Gene presence detected    16
#>  3 AAC(3)-IIc DKB                  Aminoglycosides Gene presence detected    16
#>  4 AAC(3)-IIc GEN                  Aminoglycosides Gene presence detected    16
#>  5 AAC(3)-IIc NET                  Aminoglycosides Gene presence detected    16
#>  6 AAC(3)-IIc SIS                  Aminoglycosides Gene presence detected    16
#>  7 AAC(3)-IIc TOB                  Aminoglycosides Gene presence detected    16
#>  8 AAC(3)-IId 2'-N-ethylnetilmicin Aminoglycosides Gene presence detected    88
#>  9 AAC(3)-IId 6'-N-ethylnetilmicin Aminoglycosides Gene presence detected    88
#> 10 AAC(3)-IId DKB                  Aminoglycosides Gene presence detected    88
#> # ℹ 805 more rows
```
…
We can finally see carbapenem resistance determinants alone! Since RGI
does not detect porin defects, many AMR markers are found alone compared
to Kleborate’s and AMRFinderPlus’
[`solo_ppv_analysis()`](https://amrgen.org/reference/solo_ppv_analysis.md)
(see below). For example, NDM-1 alone was found in 59 resistant genomes
(using RGI), 31 resistant genomes (using Kleborate), and 41 resistant
genomes (using AMRFinderPlus).

``` r
soloPPV_kleborate_mero
#> $solo_stats
#> # A tibble: 28 × 8
#>    marker                category     x     n    ppv     se ci.lower ci.upper
#>    <chr>                 <chr>    <dbl> <int>  <dbl>  <dbl>    <dbl>    <dbl>
#>  1 OXA-162               R            0     2 0      0        0        0     
#>  2 OXA-204               R            0     1 0      0        0        0     
#>  3 OmpK36:c.25C>T        R            0     6 0      0        0        0     
#>  4 OmpK36:p.134_135insGD R            0     9 0      0        0        0     
#>  5 VIM-1                 R            0    13 0      0        0        0     
#>  6 VIM-4                 R            0     4 0      0        0        0     
#>  7 OmpK36:-              R            1    71 0.0141 0.0140   0        0.0415
#>  8 OmpK35:-              R            2    49 0.0408 0.0283   0        0.0962
#>  9 OXA-48                R            6    99 0.0606 0.0240   0.0136   0.108 
#> 10 KPC-3                 R            3    10 0.3    0.145    0.0160   0.584 
#> # ℹ 18 more rows
…
    #> 
    #> $solo_binary
    #> # A tibble: 325 × 8
    #>    id           pheno ecoff    mic     R   NWT marker   value
    #>    <chr>        <sir> <sir>  <mic> <dbl> <dbl> <chr>    <dbl>
    #>  1 SAMEA3498967   I    NWT    4.00     0     1 OmpK36:-     1
    #>  2 SAMEA3498970   I    NWT    4.00     0     1 OmpK36:-     1
    #>  3 SAMEA3498975   S    NWT    2.00     0     1 OmpK36:-     1
    #>  4 SAMEA3498992   S    NWT    0.50     0     1 OmpK36:-     1
    #>  5 SAMEA3498996   S     WT  <=0.06     0     0 OmpK35:-     1
    #>  6 SAMEA3498997   S    NWT    0.50     0     1 OmpK36:-     1
    #>  7 SAMEA3498998   S    NWT    2.00     0     1 OmpK36:-     1
    #>  8 SAMEA3499003   R    NWT  >32.00     1     1 NDM-1        1
    #>  9 SAMEA3499004   R    NWT   32.00     1     1 OmpK36:-     1
    #> 10 SAMEA3499010   S     WT  <=0.06     0     0 OmpK35:-     1
    #> # ℹ 315 more rows
    #> 
    #> $solo_binary_norange
    #> NULL
    #> 
    #> $amr_binary
    #> # A tibble: 1,490 × 24
    #>    id    pheno ecoff    mic     R   NWT `OmpK36..-` `OmpK35..-` `NDM-1` `OXA-48`
    #>    <chr> <sir> <sir>  <mic> <dbl> <dbl>       <dbl>       <dbl>   <dbl>    <dbl>
    #>  1 SAME…   I    NWT    4.00     0     1           1           0       0        0
    #>  2 SAME…   S     WT  <=0.06     0     0           0           0       0        0
    #>  3 SAME…   S    NWT    1.00     0     1           1           1       0        0
    #>  4 SAME…   I    NWT    4.00     0     1           1           0       0        0
    #>  5 SAME…   I    NWT    4.00     0     1           1           1       0        0
    #>  6 SAME…   S     WT  <=0.06     0     0           0           0       0        0
    #>  7 SAME…   S     WT  <=0.06     0     0           0           0       0        0
    #>  8 SAME…   S    NWT    2.00     0     1           1           0       0        0
    #>  9 SAME…   S     WT  <=0.06     0     0           0           0       0        0
    #> 10 SAME…   S    NWT    0.50     0     1           1           0       0        0
    #> # ℹ 1,480 more rows
    #> # ℹ 14 more variables: `OmpK36..c.25C>T` <dbl>, `KPC-3` <dbl>,
    #> #   OmpK36..p.134_135insGD <dbl>, `KPC-2` <dbl>, OmpK36..p.135_136insD <dbl>,
    #> #   `OXA-204` <dbl>, `VIM-1` <dbl>, OmpK36..p.136_137insTD <dbl>,
    #> #   `VIM-4` <dbl>, `KPC-12` <dbl>, `OXA-232` <dbl>, `CTX-M-33` <dbl>,
    #> #   `OXA-162` <dbl>, `IMP-1` <dbl>
…
``` r
# Summary of combinatorial PPV
comboPPV_rgi_mero$summary
#> # A tibble: 21 × 21
#>    marker_list        marker_count     n combination_id    R.n  R.ppv R.ci_lower
#>    <chr>                     <dbl> <int> <fct>           <dbl>  <dbl>      <dbl>
#>  1 ""                            0   996 0_0_0_0_0_0_0_…   105 0.105     0.0863 
#>  2 "IMP-1"                       1     3 0_0_0_0_0_0_0_…     2 0.667     0.133  
#>  3 "CMY-2"                       1     1 0_0_0_0_0_0_0_…     0 0         0      
#>  4 "KPC-12"                      1     1 0_0_0_0_0_0_0_…     1 1         1      
#>  5 "Kpne_KpnG"                   1     1 0_0_0_0_0_0_0_…     0 0         0      
#>  6 "VIM-4"                       1     2 0_0_0_0_0_0_1_…     0 0         0      
#>  7 "VIM-4:-"                     1    20 0_0_0_0_0_1_0_…     0 0         0      
#>  8 "VIM-1"                       1    20 0_0_0_0_1_0_0_…     5 0.25      0.0602 
#>  9 "LptD:-"                      1   114 0_0_0_1_0_0_0_…     5 0.0439    0.00627
#> 10 "LptD:-, NDM-69:-"            2     1 0_0_0_1_0_0_0_…     0 0         0      
#> # ℹ 11 more rows
#> # ℹ 14 more variables: R.ci_upper <dbl>, R.denom <int>, NWT.n <dbl>,
#> #   NWT.ppv <dbl>, NWT.ci_lower <dbl>, NWT.ci_upper <dbl>, NWT.denom <int>,
#> #   median_excludeRangeValues <dbl>, q25_excludeRangeValues <dbl>,
#> #   q75_excludeRangeValues <dbl>, n_excludeRangeValues <int>,
#> #   median_ignoreRanges <dbl>, q25_ignoreRanges <dbl>, q75_ignoreRanges <dbl>
```
…
``` r

comboPPV_combined_mero$summary
#> # A tibble: 86 × 21
#>    marker_list        marker_count     n combination_id   R.n   R.ppv R.ci_lower
#>    <chr>                     <dbl> <int> <fct>          <dbl>   <dbl>      <dbl>
#>  1 ""                            0   601 0_0_0_0_0_0_0…     3 0.00499          0
#>  2 "OmpK36:c.25C>T_k…            1     5 0_0_0_0_0_0_0…     0 0                0
#>  3 "OmpK35:-_klebora…            1    43 0_0_0_0_0_0_0…     1 0.0233           0
#>  4 "OmpK35:-_klebora…            2     3 0_0_0_0_0_0_0…     0 0                0
#>  5 "OmpK36:-_klebora…            1    63 0_0_0_0_0_0_0…     1 0.0159           0
#>  6 "OmpK36:-_klebora…            2     1 0_0_0_0_0_0_0…     1 1                1
#>  7 "OmpK36:-_klebora…            2    15 0_0_0_0_0_0_0…     0 0                0
#>  8 "OXA-162"                     1     2 0_0_0_0_0_0_0…     0 0                0
#>  9 "OXA-427_amrfp, O…            2     1 0_0_0_0_0_0_0…     0 0                0
#> 10 "NDM_amrfp"                   1     1 0_0_0_0_0_0_0…     0 0                0
#> # ℹ 76 more rows
#> # ℹ 14 more variables: R.ci_upper <dbl>, R.denom <int>, NWT.n <dbl>,
#> #   NWT.ppv <dbl>, NWT.ci_lower <dbl>, NWT.ci_upper <dbl>, NWT.denom <int>,
#> #   median_excludeRangeValues <dbl>, q25_excludeRangeValues <dbl>,
#> #   q75_excludeRangeValues <dbl>, n_excludeRangeValues <int>,
#> #   median_ignoreRanges <dbl>, q25_ignoreRanges <dbl>, q75_ignoreRanges <dbl>
```
