…
# Select only combinations with a R ppv value of at least 0.5
ppv_05 <- eco_cip_ppv$summary %>%
  filter(R.ppv >= 0.5)

# View the combinations of markers with a ppv value above 0.5
ppv_05
#> # A tibble: 27 × 21
#>    marker_list          marker_count     n combination_id   R.n R.ppv R.ci_lower
#>    <chr>                       <dbl> <int> <fct>          <dbl> <dbl>      <dbl>
#>  1 aac(6')-Ib-cr5, par…            3     1 0_0_0_0_0_0_0…     1 1          1    
#>  2 gyrA_S83L, qnrS1                2     2 0_1_0_0_0_1_0…     2 1          1    
#>  3 gyrA_S83L, parC_S80…            3     1 0_1_1_0_0_0_0…     1 1          1    
#>  4 gyrA_S83L, parC_S80…            3     1 0_1_1_0_0_0_0…     1 1          1    
#>  5 gyrA_S83L, parC_S80…            4     8 0_1_1_1_0_0_0…     7 0.875      0.646
#>  6 gyrA_D87N, gyrA_S83…            3    11 1_1_1_0_0_0_0…    11 1          1    
#>  7 gyrA_D87N, gyrA_S83…            4     2 1_1_1_0_0_0_0…     2 1          1    
#>  8 gyrA_D87N, gyrA_S83…            4     3 1_1_1_0_0_0_0…     3 1          1    
#>  9 gyrA_D87N, gyrA_S83…            4     3 1_1_1_0_0_0_0…     3 1          1    
#> 10 gyrA_D87N, gyrA_S83…            4     4 1_1_1_0_0_0_0…     3 0.75       0.326
#> # ℹ 17 more rows
#> # ℹ 14 more variables: R.ci_upper <dbl>, R.denom <int>, NWT.n <dbl>,
#> #   NWT.ppv <dbl>, NWT.ci_lower <dbl>, NWT.ci_upper <dbl>, NWT.denom <int>,
#> #   median_excludeRangeValues <dbl>, q25_excludeRangeValues <dbl>,
#> #   q75_excludeRangeValues <dbl>, n_excludeRangeValues <int>,
#> #   median_ignoreRanges <dbl>, q25_ignoreRanges <dbl>, q75_ignoreRanges <dbl>
```
…
We can also extract and inspect the samples that the logistic model
predicted wrongly, to explore their genotypes.

``` r
# samples with predictions different from the observed phenotype
concordance_cip_log$data %>%
  filter(R_pred != R)
#> # A tibble: 26 × 37
#>    id    R_pred     R   NWT pheno   mic gyrA_D87N gyrA_S83L parC_S80I parE_S458A
#>    <chr>  <int> <dbl> <dbl> <sir> <mic>     <dbl>     <dbl>     <dbl>      <dbl>
#>  1 SAMN…      1     0     0   S   <=0.5         1         1         1          1
#>  2 SAMN…      0     1     1   R    >2.0         0         0         0          0
#>  3 SAMN…      0     1     1   R    >2.0         0         0         0          0
#>  4 SAMN…      0     1     1   R    >2.0         0         0         0          0
#>  5 SAMN…      0     1     1   R    >2.0         0         0         0          0
#>  6 SAMN…      1     0     0   S     1.0         0         1         1          0
#>  7 SAMN…      1     0     0   S     1.0         0         1         1          0
#>  8 SAMN…      1     0     0   S     1.0         0         1         1          0
#>  9 SAMN…      0     1     1   R    >2.0         0         0         0          0
#> 10 SAMN…      0     1     1   R    >2.0         0         0         0          0
#> # ℹ 16 more rows
#> # ℹ 27 more variables: marR_S3N <dbl>, qnrS1 <dbl>, parE_I529L <dbl>,
#> #   parC_E84V <dbl>, qnrB19 <dbl>, parE_L416F <dbl>, parC_S80R <dbl>,
#> #   `aac(6')-Ib-cr5` <dbl>, parE_S458T <dbl>, parE_D475E <dbl>,
#> #   parC_S57T <dbl>, parE_I355T <dbl>, gyrA_S83A <dbl>, parC_E84G <dbl>,
#> #   qnrB2 <dbl>, marR_R77C <dbl>, qnrB6 <dbl>, gyrA_D87Y <dbl>,
#> #   parE_L445H <dbl>, gyrA_D87G <dbl>, qnrB4 <dbl>, soxS_A12S <dbl>, …
…
    #> 
    #> $binary_matrix
    #> # A tibble: 26 × 36
    #>    id               R   NWT pheno   mic gyrA_D87N gyrA_S83L parC_S80I parE_S458A
    #>    <chr>        <dbl> <dbl> <sir> <mic>     <dbl>     <dbl>     <dbl>      <dbl>
    #>  1 SAMN26304359     0     0   S   <=0.5         1         1         1          1
    #>  2 SAMN26304504     1     1   R    >2.0         0         0         0          0
    #>  3 SAMN26304509     1     1   R    >2.0         0         0         0          0
    #>  4 SAMN26304557     1     1   R    >2.0         0         0         0          0
    #>  5 SAMN26304572     1     1   R    >2.0         0         0         0          0
    #>  6 SAMN26304667     0     0   S     1.0         0         1         1          0
    #>  7 SAMN26304713     0     0   S     1.0         0         1         1          0
    #>  8 SAMN26304714     0     0   S     1.0         0         1         1          0
    #>  9 SAMN26304849     1     1   R    >2.0         0         0         0          0
    #> 10 SAMN26305235     1     1   R    >2.0         0         0         0          0
    #> # ℹ 16 more rows
    #> # ℹ 27 more variables: marR_S3N <dbl>, qnrS1 <dbl>, parE_I529L <dbl>,
    #> #   parC_E84V <dbl>, qnrB19 <dbl>, parE_L416F <dbl>, parC_S80R <dbl>,
    #> #   `aac(6')-Ib-cr5` <dbl>, parE_S458T <dbl>, parE_D475E <dbl>,
    #> #   parC_S57T <dbl>, parE_I355T <dbl>, gyrA_S83A <dbl>, parC_E84G <dbl>,
    #> #   qnrB2 <dbl>, marR_R77C <dbl>, qnrB6 <dbl>, gyrA_D87Y <dbl>,
    #> #   parE_L445H <dbl>, gyrA_D87G <dbl>, qnrB4 <dbl>, soxS_A12S <dbl>, …
…
