…
# Total number of markers, drugs, and drug classes
salm_geno_summary$uniques
#> # A tibble: 3 × 2
#>   column     n_unique
#>   <chr>         <int>
#> 1 marker           26
#> 2 drug              1
#> 3 drug_class        1

# Prevalence of each detected marker, in decreasing abundance
salm_geno_summary$markers %>% arrange(-n)
#> # A tibble: 26 × 4
#>    marker    drug  drug_class     n
#>    <chr>     <chr> <chr>      <int>
#>  1 parC_T57S NA    Quinolones    49
#>  2 gyrA_S83F NA    Quinolones    18
#>  3 gyrA_S83Y NA    Quinolones    18
#>  4 qnrS1     NA    Quinolones    18
#>  5 qnrB19    NA    Quinolones    16
#>  6 gyrA_D87Y NA    Quinolones    14
#>  7 gyrA_D87N NA    Quinolones    12
#>  8 gyrA_D87G NA    Quinolones    11
#>  9 parC_S80I NA    Quinolones     9
#> 10 qnrA1     NA    Quinolones     5
#> # ℹ 16 more rows
```
…
