Example with custom classification of genotype hits • AMRgen
…
cli_soloPPV_variant$solo_stats
## # A tibble: 38 × 8
##    marker                   category     x     n    ppv     se ci.lower ci.upper
##    <chr>                    <chr>    <dbl> <int>  <dbl>  <dbl>    <dbl>    <dbl>
##  1 erm(A)__WP_001072197.1   R            0     1 0      0        0         0    
##  2 erm(A)__WP_001072201.1   R          220   365 0.603  0.0256   0.553     0.653
##  3 erm(A)__x_WP_001072197.… R            0     1 0      0        0         0    
##  4 erm(A)__x_WP_001072201.1 R            6    17 0.353  0.116    0.126     0.580
##  5 erm(A)__x_WP_001072201.… R            0     4 0      0        0         0    
##  6 erm(B)__WP_001038790.1   R            1     1 1      0        1         1    
##  7 erm(B)__WP_002292226.1   R            2     2 1      0        1         1    
##  8 erm(C)__WP_001003260.1   R            1     1 1      0        1         1    
##  9 erm(C)__WP_001003263.1   R           61   705 0.0865 0.0106   0.0658    0.107
## 10 erm(C)__WP_001003264.1   R            2    12 0.167  0.108    0         0.378
## # ℹ 28 more rows
…
